.........................
----------------------------------------------------------------------
Ran 25 tests in 0.117s

OK
Name             Stmts   Miss Branch BrPart  Cover   Missing
------------------------------------------------------------
Collatz.py          35      0     14      0   100%
TestCollatz.py     101      0      0      0   100%
------------------------------------------------------------
TOTAL              136      0     14      0   100%