..............
----------------------------------------------------------------------
Ran 14 tests in 0.476s

OK
Name             Stmts   Miss Branch BrPart  Cover   Missing
------------------------------------------------------------
Collatz.py          51      0     24      1    99%   60->71
TestCollatz.py      62      0      0      0   100%
------------------------------------------------------------
TOTAL              113      0     24      1    99%
