1 10 20
100 200 125
201 210 89
900 1000 174
1000 1 179
1 1 1
64013 26620 340
13785 90204 351
13247 64047 340
46955 84748 351
95809 30965 351
73105 84614 351
31076 95164 351
81268 14566 351
95214 43564 351
36108 52339 314
2361 39330 324
84842 38315 351
2726 58130 340
11823 8173 268
85486 96701 333
53015 69494 335
15539 65378 340
94045 25493 351
86340 6137 351
51316 44539 314
8639 88776 351
83150 13493 351
98482 66907 351
32860 5622 308
39243 69837 340
85394 98367 333
77578 35578 351
98441 31815 351
3050 13461 276
12915 1666 268
60141 53999 322
23868 40848 324
46824 87733 351
32464 48329 324
65563 64148 299
2225 8972 262
6935 80219 351
1570 45240 324
41901 41497 257
95966 41633 351
68431 15476 340
53151 96128 351
54113 63737 335
47603 423 324
95269 92367 328
67262 15413 340
91151 78128 338
87644 76420 351
63483 35029 340
60428 25582 340
29336 84436 351
28023 53520 340
2077 51575 324
51149 29183 324
9076 74881 340
86929 50807 351
93883 16306 351
68989 78621 351
95043 70432 351
99190 44832 351
53136 19703 340
86619 20327 351
34289 4055 311
90727 39954 351
62802 11080 340
3890 35142 311
79773 21729 351
93080 11845 351
13159 86872 351
71549 21230 340
70508 50772 340
35572 47720 324
13452 5036 276
72162 67413 325
75905 239 340
73389 82671 351
62226 28847 340
20551 22432 269
55876 5134 340
498 96580 351
87058 83833 320
17602 4294 276
69010 74151 325
8288 13848 276
6901 16821 276
68411 75211 325
25148 61120 340
56862 36400 340
63305 28954 340
58077 70078 335
5531 99043 351
15475 93918 351
42637 8958 324
90235 17527 351
56342 34365 340
36868 77130 351
50892 9532 324
22768 31837 308
16953 73626 340
13714 26140 282
81833 62920 351
34653 8751 311
45765 31737 324
344 64378 340
60935 3457 340
12633 72300 340
7495 33752 308
9567 81810 351
57733 64793 335
76517 65706 325
95536 97764 297
93512 26230 351
28990 45586 324
12940 16 268
81356 29498 351
95441 26959 351
57239 15475 340
87953 20932 351
91935 77529 338
4583 98868 351
42097 34926 324
24809 24701 264
95591 88977 333
12401 84472 351
43340 29624 324
38860 8959 324
57724 51157 340
52195 27952 324
81160 14203 351
17197 87100 351
72974 30959 340
63541 12198 340
59446 32509 340
18203 26786 308
37198 49457 314
35719 27401 324
86060 3262 351
95562 98860 297
13087 63691 340
33437 28514 285
39724 34641 324
10309 39868 324
85109 20282 351
10206 56587 340
64643 8591 340
25564 99082 351
35834 8114 324
17366 44023 324
94869 60584 351
29673 94198 351
97067 27508 351
18871 81770 351
68547 51269 340
8534 45489 324
6990 2675 262
64473 82432 351
14832 56915 340
61771 40195 340
94540 88064 333
34115 54906 340
97364 73323 351
62151 18803 340
53258 55272 322
7162 73387 340
83325 93737 333
39507 80989 351
10831 14980 276
45089 5470 324
5488 29790 308
40761 91638 351
69388 2370 340
75792 6901 340
55925 17169 340
91776 31535 351
55590 14658 340
30669 85049 351
16128 11747 276
33105 47951 324
31095 32528 285
87721 81 351
36362 85944 351
33183 54587 340
96916 82003 333
51792 86026 351
30207 15319 308
55779 99357 351
16322 91061 351
16618 32083 308
3834 31164 308
23126 51213 324
41604 28391 324
57727 17539 340
15314 75805 340
74064 41462 340
97538 17939 351
84317 44637 351
78647 69403 351
95139 43599 351
39723 37525 275
