1 10 20
100 200 125
201 210 89
900 1000 174
1 1 1
300 300 17
10 1 20
900 500 179
2500 1000 209
1000 1050 156
300 800 171
1 2 2
99999 10000 351
34 987 179
2 40 112
90 1000 179
58 4590 238
10 15 18
15 20 21
22 90 116
1000 2000 182
3000 5000 238
890 1245 182
1016 1090 169
6000 7000 262
45 450 144
11 10 15
1100 200 179
201 2210 182
9100 1000 262
12 1 20
300 4400 238
10 11 15
100 500 144
200 1000 179
1000 100 179
300 80 128
1 22 21
9999 10000 92
34 97 119
2 3 8
9 10 20
58 459 144
1 15 20
5 20 21
22 9 21
100 2000 182
400 5000 238
80 125 119
106 1090 179
600 700 145
45 45 17
1 100 119
10 200 125
20 210 125
900 1001 174
1 11 20
30 300 128
101 1 119
2000 5100 238
250 100 128
100 100 26
320 800 171
1 29 112
999 1001 143
32 97 119
2 43 112
90 1 116
58 45 113
14 15 18
15 23 21
22 93 116
1002 2000 182
400 920 179
89 12 116
16 109 119
60 70 108
45 40 110
1 14 20
140 200 125
21 22 16
90 104 119
1 9 20
30 30 19
19 1 21
900 504 179
200 100 125
10 105 119
33 83 116
1 22 21
99999 10000 351
34 987 179
2 40 112
99 12 119
58 49 113
10 13 15
14 2 20
2 9 20
1200 2020 180
800 500 171
80 145 122
106 109 114
600 703 171
45 40 110
1 18 21
120 240 128
21 214 125
910 100 179
1 18 21
320 300 131
101 1 119
90 540 144
220 100 125
100 149 122
30 83 116
1 27 112
99 103 88
34 87 116
2 43 112
94 1039 179
53 40 110
15 15 18
15 23 21
22 50 112
1030 2900 209
3020 5090 238
830 125 171
106 100 88
630 70 144
45 43 30
1500 4000 238
