1 10 20
100 200 125
201 210 89
900 1000 174
400 200 144
10 20 21
20 30 112
30 40 107
40 50 110
50 60 113
60 70 108
70 80 116
90 100 119
100 110 114
110 120 114
120 130 122
130 140 91
140 150 117
150 160 86
160 170 112
170 180 125
180 190 107
190 200 120
1 20 21
20 40 112
40 60 113
60 80 116
80 100 119
100 120 114
120 140 122
140 160 117
160 180 125
180 200 120
90000 91000 315
91000 92000 333
92000 93000 315
93000 94000 284
94000 95000 315
95000 96000 328
96000 97000 297
97000 98000 297
98000 99000 284
99000 99999 328
1000 900 174
900 800 179
800 700 171
700 600 145
600 500 137
500 400 142
400 300 144
300 200 128
200 100 125
100 1 119
1 99999 351
10000 9000 260
9000 8000 247
8000 7000 252
7000 6000 262
6000 5000 236
5000 4000 215
4000 3000 238
3000 2000 217
2000 1000 182
1000 1 179
1 1 1
10 10 7
1000 1000 112
10000 10000 30
100000 100000 129
99999 1 351
123 456 144
456 789 171
789 10000 262
11 22 21
22 33 112
33 44 110
44 55 113
55 66 113
66 77 116
77 88 111
88 99 119
99 111 114
111 222 125
222 333 144
333 444 134
444 555 142
555 666 145
666 777 171
888 999 174
999 1111 169
1111 2222 182
2222 3333 217
3333 4444 238
4444 5555 210
5555 6666 262
6666 7777 257
7777 8888 252
8888 9999 260
9999 11111 268
11111 22222 279
22222 33333 308
33333 44444 324
44444 55555 340
55555 66666 335
66666 77777 351
77777 88888 338
88888 99999 333
99999 111111 354
