.............
----------------------------------------------------------------------
Ran 13 tests in 0.690s

OK
Name             Stmts   Miss Branch BrPart  Cover   Missing
------------------------------------------------------------
Collatz.py          37      0     12      0   100%
TestCollatz.py      59      0      0      0   100%
------------------------------------------------------------
TOTAL               96      0     12      0   100%
