.....................
----------------------------------------------------------------------
Ran 21 tests in 0.697s

OK
Name             Stmts   Miss Branch BrPart  Cover   Missing
------------------------------------------------------------
Collatz.py          34      0     14      0   100%
TestCollatz.py      84      0      0      0   100%
------------------------------------------------------------
TOTAL              118      0     14      0   100%
